{
  "attach.screenshot.html5.contentReady": [],
  "attach.screenshot.html5.display": [],
  "attach.screenshot.html5.catchClipboard": [],
  "attach.screenshot.html5.handlePaste": [],
  "attach.screenshot.html5.dialogClosed": [],
  "attach.screenshot.html5.dialogPaste": [],
  "attach.screenshot.html5.dialogPaste.insertWikiMarkup": [],
  "attach.screenshot.html5.insertWikiMarkup": [
    "targetId"
  ],
  "issue.dnd.attachment.uploadprogress.buttonClick": [],
  "issue.dnd.attachment.uploadprogress.error": [],
  "issue.dnd.attachment.attachmentsuploadprogress.buttonClick": [],
  "issue.dnd.attachment.issuedropzone.init": [],
  "issue.dnd.attachment.issuedropzone.fileInput": [
    "count"
  ],
  "issue.dnd.attachment.issuedropzone.fileDrop": [
    "count"
  ],
  "issue.dnd.attachment.issuedropzone.commitUpload": [
    "count"
  ],
  "issue.dnd.attachment.issuedropzone.autoDestroy": [],
  "issue.dnd.attachment.attachfiledropzone.init": [],
  "issue.dnd.attachment.attachfiledropzone.fileInput": [
    "count"
  ],
  "issue.dnd.attachment.attachfiledropzone.fileDrop": [
    "count"
  ],
  "issue.dnd.attachment.attachfiledropzone.commitUpload": [
    "count"
  ],
  "issue.dnd.attachment.attachfiledropzone.autoDestroy": [],
  "issue.dnd.attachment.attachmentsdropzone.init": [],
  "issue.dnd.attachment.attachmentsdropzone.fileInput": [
    "count"
  ],
  "issue.dnd.attachment.attachmentsdropzone.fileDrop": [
    "count"
  ],
  "issue.dnd.attachment.attachmentsdropzone.fileDropTextfield": [
    "targetName"
  ],
  "issue.dnd.attachment.attachmentsdropzone.commitUpload": [
    "count"
  ],
  "issue.dnd.attachment.attachmentsdropzone.autoDestroy": [],
  "issue.dnd.attachment.createissuedropzone.init": [],
  "issue.dnd.attachment.createissuedropzone.fileInput": [
    "count"
  ],
  "issue.dnd.attachment.createissuedropzone.fileDrop": [
    "count"
  ],
  "issue.dnd.attachment.createissuedropzone.commitUpload": [
    "count"
  ],
  "issue.dnd.attachment.createissuedropzone.autoDestroy": [],
  "issue.dnd.attachment.formdropzone.init": [],
  "issue.dnd.attachment.formdropzone.fileInput": [
    "count"
  ],
  "issue.dnd.attachment.formdropzone.fileDrop": [
    "count"
  ],
  "issue.dnd.attachment.formdropzone.commitUpload": [
    "count"
  ],
  "issue.dnd.attachment.formdropzone.autoDestroy": [],
  "issue.dnd.attachment.commentdialogdropzone.fileDrop": [
    "count"
  ],
  "issue.dnd.attachment.opsbar.attachFiles.linkClick": []
}